^E:\CLIONPROJECTS\VS\HOMEWORK\HELPERS.CPP
^E:\CLIONPROJECTS\VS\HOMEWORK\MAIN.CPP
E:\VISUALSTUDIO\VC\TOOLS\MSVC\14.29.30037\INCLUDE\IOSTREAM
E:\VISUALSTUDIO\VC\TOOLS\MSVC\14.29.30037\INCLUDE\YVALS_CORE.H
E:\VISUALSTUDIO\VC\TOOLS\MSVC\14.29.30037\INCLUDE\VCRUNTIME.H
E:\VISUALSTUDIO\VC\TOOLS\MSVC\14.29.30037\INCLUDE\SAL.H
E:\VISUALSTUDIO\VC\TOOLS\MSVC\14.29.30037\INCLUDE\CONCURRENCYSAL.H
E:\VISUALSTUDIO\VC\TOOLS\MSVC\14.29.30037\INCLUDE\VADEFS.H
E:\VISUALSTUDIO\VC\TOOLS\MSVC\14.29.30037\INCLUDE\XKEYCHECK.H
E:\VISUALSTUDIO\VC\TOOLS\MSVC\14.29.30037\INCLUDE\ISTREAM
E:\VISUALSTUDIO\VC\TOOLS\MSVC\14.29.30037\INCLUDE\OSTREAM
E:\VISUALSTUDIO\VC\TOOLS\MSVC\14.29.30037\INCLUDE\IOS
E:\VISUALSTUDIO\VC\TOOLS\MSVC\14.29.30037\INCLUDE\XLOCNUM
E:\VISUALSTUDIO\VC\TOOLS\MSVC\14.29.30037\INCLUDE\CLIMITS
E:\VISUALSTUDIO\VC\TOOLS\MSVC\14.29.30037\INCLUDE\LIMITS.H
E:\VISUALSTUDIO\VC\TOOLS\MSVC\14.29.30037\INCLUDE\CMATH
E:\VISUALSTUDIO\VC\TOOLS\MSVC\14.29.30037\INCLUDE\YVALS.H
C:\PROGRAM FILES (X86)\WINDOWS KITS\10\INCLUDE\10.0.19041.0\UCRT\CRTDBG.H
C:\PROGRAM FILES (X86)\WINDOWS KITS\10\INCLUDE\10.0.19041.0\UCRT\CORECRT.H
E:\VISUALSTUDIO\VC\TOOLS\MSVC\14.29.30037\INCLUDE\VCRUNTIME_NEW_DEBUG.H
E:\VISUALSTUDIO\VC\TOOLS\MSVC\14.29.30037\INCLUDE\VCRUNTIME_NEW.H
E:\VISUALSTUDIO\VC\TOOLS\MSVC\14.29.30037\INCLUDE\CRTDEFS.H
E:\VISUALSTUDIO\VC\TOOLS\MSVC\14.29.30037\INCLUDE\USE_ANSI.H
E:\VISUALSTUDIO\VC\TOOLS\MSVC\14.29.30037\INCLUDE\CSTDLIB
C:\PROGRAM FILES (X86)\WINDOWS KITS\10\INCLUDE\10.0.19041.0\UCRT\MATH.H
C:\PROGRAM FILES (X86)\WINDOWS KITS\10\INCLUDE\10.0.19041.0\UCRT\CORECRT_MATH.H
C:\PROGRAM FILES (X86)\WINDOWS KITS\10\INCLUDE\10.0.19041.0\UCRT\STDLIB.H
C:\PROGRAM FILES (X86)\WINDOWS KITS\10\INCLUDE\10.0.19041.0\UCRT\CORECRT_MALLOC.H
C:\PROGRAM FILES (X86)\WINDOWS KITS\10\INCLUDE\10.0.19041.0\UCRT\CORECRT_SEARCH.H
C:\PROGRAM FILES (X86)\WINDOWS KITS\10\INCLUDE\10.0.19041.0\UCRT\STDDEF.H
C:\PROGRAM FILES (X86)\WINDOWS KITS\10\INCLUDE\10.0.19041.0\UCRT\CORECRT_WSTDLIB.H
E:\VISUALSTUDIO\VC\TOOLS\MSVC\14.29.30037\INCLUDE\XTR1COMMON
E:\VISUALSTUDIO\VC\TOOLS\MSVC\14.29.30037\INCLUDE\INTRIN0.H
E:\VISUALSTUDIO\VC\TOOLS\MSVC\14.29.30037\INCLUDE\CSTDIO
C:\PROGRAM FILES (X86)\WINDOWS KITS\10\INCLUDE\10.0.19041.0\UCRT\STDIO.H
C:\PROGRAM FILES (X86)\WINDOWS KITS\10\INCLUDE\10.0.19041.0\UCRT\CORECRT_WSTDIO.H
C:\PROGRAM FILES (X86)\WINDOWS KITS\10\INCLUDE\10.0.19041.0\UCRT\CORECRT_STDIO_CONFIG.H
E:\VISUALSTUDIO\VC\TOOLS\MSVC\14.29.30037\INCLUDE\ITERATOR
E:\VISUALSTUDIO\VC\TOOLS\MSVC\14.29.30037\INCLUDE\IOSFWD
E:\VISUALSTUDIO\VC\TOOLS\MSVC\14.29.30037\INCLUDE\CSTRING
C:\PROGRAM FILES (X86)\WINDOWS KITS\10\INCLUDE\10.0.19041.0\UCRT\STRING.H
C:\PROGRAM FILES (X86)\WINDOWS KITS\10\INCLUDE\10.0.19041.0\UCRT\CORECRT_MEMORY.H
C:\PROGRAM FILES (X86)\WINDOWS KITS\10\INCLUDE\10.0.19041.0\UCRT\CORECRT_MEMCPY_S.H
C:\PROGRAM FILES (X86)\WINDOWS KITS\10\INCLUDE\10.0.19041.0\UCRT\ERRNO.H
E:\VISUALSTUDIO\VC\TOOLS\MSVC\14.29.30037\INCLUDE\VCRUNTIME_STRING.H
C:\PROGRAM FILES (X86)\WINDOWS KITS\10\INCLUDE\10.0.19041.0\UCRT\CORECRT_WSTRING.H
E:\VISUALSTUDIO\VC\TOOLS\MSVC\14.29.30037\INCLUDE\CWCHAR
C:\PROGRAM FILES (X86)\WINDOWS KITS\10\INCLUDE\10.0.19041.0\UCRT\WCHAR.H
C:\PROGRAM FILES (X86)\WINDOWS KITS\10\INCLUDE\10.0.19041.0\UCRT\CORECRT_WCONIO.H
C:\PROGRAM FILES (X86)\WINDOWS KITS\10\INCLUDE\10.0.19041.0\UCRT\CORECRT_WCTYPE.H
C:\PROGRAM FILES (X86)\WINDOWS KITS\10\INCLUDE\10.0.19041.0\UCRT\CORECRT_WDIRECT.H
C:\PROGRAM FILES (X86)\WINDOWS KITS\10\INCLUDE\10.0.19041.0\UCRT\CORECRT_WIO.H
C:\PROGRAM FILES (X86)\WINDOWS KITS\10\INCLUDE\10.0.19041.0\UCRT\CORECRT_SHARE.H
C:\PROGRAM FILES (X86)\WINDOWS KITS\10\INCLUDE\10.0.19041.0\UCRT\CORECRT_WPROCESS.H
C:\PROGRAM FILES (X86)\WINDOWS KITS\10\INCLUDE\10.0.19041.0\UCRT\CORECRT_WTIME.H
C:\PROGRAM FILES (X86)\WINDOWS KITS\10\INCLUDE\10.0.19041.0\UCRT\SYS\STAT.H
C:\PROGRAM FILES (X86)\WINDOWS KITS\10\INCLUDE\10.0.19041.0\UCRT\SYS\TYPES.H
E:\VISUALSTUDIO\VC\TOOLS\MSVC\14.29.30037\INCLUDE\XSTDDEF
E:\VISUALSTUDIO\VC\TOOLS\MSVC\14.29.30037\INCLUDE\CSTDDEF
E:\VISUALSTUDIO\VC\TOOLS\MSVC\14.29.30037\INCLUDE\INITIALIZER_LIST
E:\VISUALSTUDIO\VC\TOOLS\MSVC\14.29.30037\INCLUDE\XUTILITY
E:\VISUALSTUDIO\VC\TOOLS\MSVC\14.29.30037\INCLUDE\UTILITY
E:\VISUALSTUDIO\VC\TOOLS\MSVC\14.29.30037\INCLUDE\TYPE_TRAITS
E:\VISUALSTUDIO\VC\TOOLS\MSVC\14.29.30037\INCLUDE\CSTDINT
E:\VISUALSTUDIO\VC\TOOLS\MSVC\14.29.30037\INCLUDE\STDINT.H
E:\VISUALSTUDIO\VC\TOOLS\MSVC\14.29.30037\INCLUDE\STREAMBUF
E:\VISUALSTUDIO\VC\TOOLS\MSVC\14.29.30037\INCLUDE\XIOSBASE
C:\PROGRAM FILES (X86)\WINDOWS KITS\10\INCLUDE\10.0.19041.0\UCRT\SHARE.H
E:\VISUALSTUDIO\VC\TOOLS\MSVC\14.29.30037\INCLUDE\SYSTEM_ERROR
E:\VISUALSTUDIO\VC\TOOLS\MSVC\14.29.30037\INCLUDE\__MSVC_SYSTEM_ERROR_ABI.HPP
E:\VISUALSTUDIO\VC\TOOLS\MSVC\14.29.30037\INCLUDE\CERRNO
E:\VISUALSTUDIO\VC\TOOLS\MSVC\14.29.30037\INCLUDE\STDEXCEPT
E:\VISUALSTUDIO\VC\TOOLS\MSVC\14.29.30037\INCLUDE\EXCEPTION
C:\PROGRAM FILES (X86)\WINDOWS KITS\10\INCLUDE\10.0.19041.0\UCRT\MALLOC.H
E:\VISUALSTUDIO\VC\TOOLS\MSVC\14.29.30037\INCLUDE\VCRUNTIME_EXCEPTION.H
E:\VISUALSTUDIO\VC\TOOLS\MSVC\14.29.30037\INCLUDE\EH.H
C:\PROGRAM FILES (X86)\WINDOWS KITS\10\INCLUDE\10.0.19041.0\UCRT\CORECRT_TERMINATE.H
E:\VISUALSTUDIO\VC\TOOLS\MSVC\14.29.30037\INCLUDE\XSTRING
E:\VISUALSTUDIO\VC\TOOLS\MSVC\14.29.30037\INCLUDE\XMEMORY
E:\VISUALSTUDIO\VC\TOOLS\MSVC\14.29.30037\INCLUDE\LIMITS
E:\VISUALSTUDIO\VC\TOOLS\MSVC\14.29.30037\INCLUDE\CFLOAT
C:\PROGRAM FILES (X86)\WINDOWS KITS\10\INCLUDE\10.0.19041.0\UCRT\FLOAT.H
E:\VISUALSTUDIO\VC\TOOLS\MSVC\14.29.30037\INCLUDE\ISA_AVAILABILITY.H
E:\VISUALSTUDIO\VC\TOOLS\MSVC\14.29.30037\INCLUDE\NEW
E:\VISUALSTUDIO\VC\TOOLS\MSVC\14.29.30037\INCLUDE\XATOMIC.H
E:\VISUALSTUDIO\VC\TOOLS\MSVC\14.29.30037\INCLUDE\XCALL_ONCE.H
E:\VISUALSTUDIO\VC\TOOLS\MSVC\14.29.30037\INCLUDE\XERRC.H
E:\VISUALSTUDIO\VC\TOOLS\MSVC\14.29.30037\INCLUDE\ATOMIC
E:\VISUALSTUDIO\VC\TOOLS\MSVC\14.29.30037\INCLUDE\XTHREADS.H
E:\VISUALSTUDIO\VC\TOOLS\MSVC\14.29.30037\INCLUDE\XTIMEC.H
E:\VISUALSTUDIO\VC\TOOLS\MSVC\14.29.30037\INCLUDE\CTIME
C:\PROGRAM FILES (X86)\WINDOWS KITS\10\INCLUDE\10.0.19041.0\UCRT\TIME.H
E:\VISUALSTUDIO\VC\TOOLS\MSVC\14.29.30037\INCLUDE\XLOCALE
E:\VISUALSTUDIO\VC\TOOLS\MSVC\14.29.30037\INCLUDE\MEMORY
E:\VISUALSTUDIO\VC\TOOLS\MSVC\14.29.30037\INCLUDE\TYPEINFO
E:\VISUALSTUDIO\VC\TOOLS\MSVC\14.29.30037\INCLUDE\VCRUNTIME_TYPEINFO.H
E:\VISUALSTUDIO\VC\TOOLS\MSVC\14.29.30037\INCLUDE\XFACET
E:\VISUALSTUDIO\VC\TOOLS\MSVC\14.29.30037\INCLUDE\XLOCINFO
E:\VISUALSTUDIO\VC\TOOLS\MSVC\14.29.30037\INCLUDE\XLOCINFO.H
E:\VISUALSTUDIO\VC\TOOLS\MSVC\14.29.30037\INCLUDE\CCTYPE
C:\PROGRAM FILES (X86)\WINDOWS KITS\10\INCLUDE\10.0.19041.0\UCRT\CTYPE.H
E:\VISUALSTUDIO\VC\TOOLS\MSVC\14.29.30037\INCLUDE\CLOCALE
C:\PROGRAM FILES (X86)\WINDOWS KITS\10\INCLUDE\10.0.19041.0\UCRT\LOCALE.H
E:\CLIONPROJECTS\VS\HOMEWORK\HELPERS.H
